LDR R1 0     // R1 = 0
LDR R2 1     // R2 = 1
ADD R1 R1 R2 // R1 = 1
ADD R1 R1 R2 // R1 = 2
ADD R1 R1 R2 // R1 = 3
ADD R1 R1 R2 // R1 = 4
ADD R1 R1 R2 // R1 = 5
ADD R1 R1 R2 // R1 = 6
ADD R1 R1 R2 // R1 = 7
ADD R1 R1 R2 // R1 = 8
ADD R1 R1 R2 // R1 = 9
ADD R1 R1 R2 // R1 = 10
ADD R1 R1 R2 // R1 = 11
ADD R1 R1 R2 // R1 = 12
ADD R1 R1 R2 // R1 = 13
ADD R1 R1 R2 // R1 = 14
ADD R1 R1 R2 // R1 = 15
ADD R1 R1 R2 // R1 = 0
